{
    "results": [
      {
        "vote_count": 1910,
        "id": 284053,
        "video": false,
        "vote_average": 7.6,
        "title": "Thor: Ragnarok",
        "popularity": 1013.06609,
        "poster_path": "/oSLd5GYGsiGgzDPKTwQh7wamO8t.jpg",
        "original_language": "en",
        "original_title": "Thor: Ragnarok",
        "genre_ids": [
          28,
          12,
          35,
          14,
          878
        ],
        "backdrop_path": "/5wNUJs23rT5rTBacNyf5h83AynM.jpg",
        "adult": false,
        "overview": "Thor is imprisoned on the other side of the universe and finds himself in a race against time to get back to Asgard to stop Ragnarok, the destruction of his homeworld and the end of Asgardian civilization, at the hands of an all-powerful new threat, the ruthless Hela.",
        "release_date": "2017-10-25"
      },
      {
        "vote_count": 909,
        "id": 141052,
        "video": false,
        "vote_average": 7,
        "title": "Justice League",
        "popularity": 828.900555,
        "poster_path": "/9rtrRGeRnL0JKtu9IMBWsmlmmZz.jpg",
        "original_language": "en",
        "original_title": "Justice League",
        "genre_ids": [
          28,
          12,
          14,
          878
        ],
        "backdrop_path": "/o5T8rZxoWSBMYwjsUFUqTt6uMQB.jpg",
        "adult": false,
        "overview": "Fueled by his restored faith in humanity and inspired by Superman's selfless act, Bruce Wayne and Diana Prince assemble a team of metahumans consisting of Barry Allen, Arthur Curry, and Victor Stone to face the catastrophic threat of Steppenwolf and the Parademons who are on the hunt for three Mother Boxes on Earth.",
        "release_date": "2017-11-15"
      },
      {
        "vote_count": 473,
        "id": 440021,
        "video": false,
        "vote_average": 6.4,
        "title": "Happy Death Day",
        "popularity": 716.471038,
        "poster_path": "/cTaEIUYTt52ooq9quVbAQ7NpGwo.jpg",
        "original_language": "en",
        "original_title": "Happy Death Day",
        "genre_ids": [
          27,
          9648,
          53
        ],
        "backdrop_path": "/eGx5OfOdvM0gkHdmkLe3hcJuEIT.jpg",
        "adult": false,
        "overview": "A college student relives the day of her murder over and over again as she tries to discover her killer's identity.",
        "release_date": "2017-10-12"
      },
      {
        "vote_count": 358,
        "id": 274855,
        "video": false,
        "vote_average": 5.8,
        "title": "Geostorm",
        "popularity": 710.470305,
        "poster_path": "/nrsx0jEaBgXq4PWo7SooSnYJTv.jpg",
        "original_language": "en",
        "original_title": "Geostorm",
        "genre_ids": [
          28,
          878,
          53
        ],
        "backdrop_path": "/lhTtnsPmEYUJB7nOaTKJzYoxJ7X.jpg",
        "adult": false,
        "overview": "Gerard Butler playing a stubborn but charming satellite designer who, when the world’s climate-controlling satellites malfunction, has to work together with his estranged brother to save the world from a man-made storm of epic proportions. A trip into space follows, while on Earth a plot to assassinate the president begins to unfold.",
        "release_date": "2017-10-13"
      },
      {
        "vote_count": 294,
        "id": 298250,
        "video": false,
        "vote_average": 6,
        "title": "Jigsaw",
        "popularity": 644.760776,
        "poster_path": "/zUbUtxiTdEgWnkXY945gtYYqBZ1.jpg",
        "original_language": "en",
        "original_title": "Jigsaw",
        "genre_ids": [
          27,
          53
        ],
        "backdrop_path": "/ytKpFaLMpFWnuSXStz1GHrtTt6R.jpg",
        "adult": false,
        "overview": "Dead bodies begin to turn up all over the city, each meeting their demise in a variety of grisly ways. All investigations begin to point the finger at deceased killer John Kramer.",
        "release_date": "2017-10-20"
      },
      {
        "vote_count": 198,
        "id": 372343,
        "video": false,
        "vote_average": 5,
        "title": "The Snowman",
        "popularity": 612.255585,
        "poster_path": "/bQHgpTVsAWjNQWS0frsl7DlzLX1.jpg",
        "original_language": "en",
        "original_title": "The Snowman",
        "genre_ids": [
          80,
          18,
          27,
          9648,
          53
        ],
        "backdrop_path": "/tAg6KUBANIVbYUpTHy5oKibhhw3.jpg",
        "adult": false,
        "overview": "Detective Harry Hole investigates the disappearance of a woman whose pink scarf is found wrapped around an ominous looking snowman.",
        "release_date": "2017-10-12"
      },
      {
        "vote_count": 182,
        "id": 390062,
        "video": false,
        "vote_average": 5.3,
        "title": "Jungle",
        "popularity": 541.351,
        "poster_path": "/tDgxknTVwrScxpCYyGUjXSn5NRk.jpg",
        "original_language": "en",
        "original_title": "Jungle",
        "genre_ids": [
          12,
          18,
          53
        ],
        "backdrop_path": "/go1a6YwrVTMrNNIfaRpBRp5pIzV.jpg",
        "adult": false,
        "overview": "A mysterious guide escorts an enthusiastic adventurer and his friend into the Amazon jungle, but their journey turns into a terrifying ordeal as the darkest elements of human nature and the deadliest threats of the wild force them to fight for survival.",
        "release_date": "2017-10-20"
      },
      {
        "vote_count": 191,
        "id": 459202,
        "video": false,
        "vote_average": 5.3,
        "title": "Boo 2! A Madea Halloween",
        "popularity": 432.907766,
        "poster_path": "/5nvP4etJ8ecQv8qZM08dK4BAzdK.jpg",
        "original_language": "en",
        "original_title": "Boo 2! A Madea Halloween",
        "genre_ids": [
          27,
          35
        ],
        "backdrop_path": "/78kN1a1AHxAPEh7hQhNjDQhLZ9W.jpg",
        "adult": false,
        "overview": "Madea and the gang encounter monsters, goblins and boogeymen at a haunted campground.",
        "release_date": "2017-10-20"
      },
      {
        "vote_count": 1241,
        "id": 341013,
        "video": false,
        "vote_average": 6.1,
        "title": "Atomic Blonde",
        "popularity": 341.162128,
        "poster_path": "/kV9R5h0Yct1kR8Hf8sJ1nX0Vz4x.jpg",
        "original_language": "en",
        "original_title": "Atomic Blonde",
        "genre_ids": [
          53,
          9648,
          28
        ],
        "backdrop_path": "/lj3wkYkJGkfmDfXkKrVarSJpFD4.jpg",
        "adult": false,
        "overview": "An undercover MI6 agent is sent to Berlin during the Cold War to investigate the murder of a fellow agent and recover a missing list of double agents.",
        "release_date": "2017-07-26"
      },
      {
        "vote_count": 224,
        "id": 392044,
        "video": false,
        "vote_average": 6.5,
        "title": "Murder on the Orient Express",
        "popularity": 303.921352,
        "poster_path": "/iBlfxlw8qwtUS0R8YjIU7JtM6LM.jpg",
        "original_language": "en",
        "original_title": "Murder on the Orient Express",
        "genre_ids": [
          80,
          18,
          9648
        ],
        "backdrop_path": "/tvKcA4OFUiZkNeTJmmTkNqKHMMg.jpg",
        "adult": false,
        "overview": "Genius Belgian detective Hercule Poirot investigates the murder of an American tycoon aboard the Orient Express train.",
        "release_date": "2017-11-03"
      },
      {
        "vote_count": 105,
        "id": 419680,
        "video": false,
        "vote_average": 5.5,
        "title": "Daddy's Home 2",
        "popularity": 286.390688,
        "poster_path": "/rF2IoKL0IFmumEXQFUuB8LajTYP.jpg",
        "original_language": "en",
        "original_title": "Daddy's Home 2",
        "genre_ids": [
          18,
          35
        ],
        "backdrop_path": "/lMDyuHzBhx3zNAv48vYzmgcJCCD.jpg",
        "adult": false,
        "overview": "Brad and Dusty must deal with their intrusive fathers during the holidays.",
        "release_date": "2017-11-09"
      },
      {
        "vote_count": 68,
        "id": 399057,
        "video": false,
        "vote_average": 6,
        "title": "The Killing of a Sacred Deer",
        "popularity": 237.731351,
        "poster_path": "/e4DGlsc9g0h5AyoyvvAuIRnofN7.jpg",
        "original_language": "en",
        "original_title": "The Killing of a Sacred Deer",
        "genre_ids": [
          18,
          27,
          9648,
          53
        ],
        "backdrop_path": "/854uDv6rzbwF82jOtFe931SMrRs.jpg",
        "adult": false,
        "overview": "A teenager's attempts to bring a brilliant surgeon into his dysfunctional family take an unexpected turn.",
        "release_date": "2017-10-20"
      },
      {
        "vote_count": 22,
        "id": 413362,
        "video": false,
        "vote_average": 4.8,
        "title": "Roman J. Israel, Esq.",
        "popularity": 227.995439,
        "poster_path": "/8e5IGlLrVjwrlDcRtzSQkXhJFWl.jpg",
        "original_language": "en",
        "original_title": "Roman J. Israel, Esq.",
        "genre_ids": [
          53,
          18
        ],
        "backdrop_path": "/sY2ttr9jdPFlTVm5gxFkRW2ELUi.jpg",
        "adult": false,
        "overview": "Hard-nosed liberal lawyer Roman J. Israel has been fighting the good fight forever while others take the credit. When his partner, the firm’s frontman, has a heart attack, Israel suddenly takes on that role. He soon discovers some unsettling truths about the firm--truths that conflict with his values of helping the poor and dispossessed--and finds himself in an existential crisis that leads to extreme actions.",
        "release_date": "2017-11-10"
      },
      {
        "vote_count": 42,
        "id": 395458,
        "video": false,
        "vote_average": 4.5,
        "title": "Suburbicon",
        "popularity": 218.464012,
        "poster_path": "/a3IHgSwO5jWPLcGjKqbQ7pxVGkq.jpg",
        "original_language": "en",
        "original_title": "Suburbicon",
        "genre_ids": [
          18,
          28,
          80,
          9648
        ],
        "backdrop_path": "/egHeYqgrutiRAzGGWTKp3zqUw0j.jpg",
        "adult": false,
        "overview": "A crime mystery set in the quiet family town of Suburbicon during the 1950s, where the best and worst of humanity is hilariously reflected through the deeds of seemingly ordinary people. When a home invasion turns deadly, a picture-perfect family turns to blackmail, revenge, and murder.",
        "release_date": "2017-10-26"
      },
      {
        "vote_count": 55,
        "id": 395991,
        "video": false,
        "vote_average": 5.8,
        "title": "Only the Brave",
        "popularity": 208.077408,
        "poster_path": "/lC7WdUNLOJI3sllaDGNdFy2GT8g.jpg",
        "original_language": "en",
        "original_title": "Only the Brave",
        "genre_ids": [
          18
        ],
        "backdrop_path": "/8wI0M7HDHhDsoxMCkcAVUx7O6DX.jpg",
        "adult": false,
        "overview": "Members of the Granite Mountain Hotshots battle deadly wildfires to save an Arizona town.",
        "release_date": "2017-10-19"
      },
      {
        "vote_count": 17,
        "id": 355547,
        "video": false,
        "vote_average": 4.4,
        "title": "The Star",
        "popularity": 204.826288,
        "poster_path": "/tEbDvivUfsCupngKIfMJJ725eAD.jpg",
        "original_language": "en",
        "original_title": "The Star",
        "genre_ids": [
          35,
          16,
          12
        ],
        "backdrop_path": "/iJ5dkwIHQnq8dfmwSLh7dpETNhi.jpg",
        "adult": false,
        "overview": "A small but brave donkey and his animal friends become the unsung heroes of the greatest story ever told, the first Christmas.",
        "release_date": "2017-11-15"
      },
      {
        "vote_count": 28,
        "id": 383709,
        "video": false,
        "vote_average": 5.9,
        "title": "Wonderstruck",
        "popularity": 186.374707,
        "poster_path": "/yjDAt9K3FKU1itABgIXl6YvLsVE.jpg",
        "original_language": "en",
        "original_title": "Wonderstruck",
        "genre_ids": [
          18
        ],
        "backdrop_path": "/eUSNKg5tlocYAQs5nHlDxyAefuB.jpg",
        "adult": false,
        "overview": "The story of a young boy in the Midwest is told simultaneously with a tale about a young girl in New York from fifty years ago as they both seek the same mysterious connection.",
        "release_date": "2017-10-20"
      },
      {
        "vote_count": 4,
        "id": 450322,
        "video": false,
        "vote_average": 5.8,
        "title": "The Man Who Invented Christmas",
        "popularity": 183.087637,
        "poster_path": "/qRkzRue5rTzB6PESXBJCKqROOXC.jpg",
        "original_language": "en",
        "original_title": "The Man Who Invented Christmas",
        "genre_ids": [
          18,
          36
        ],
        "backdrop_path": "/2lpHdk1ccelg5odsCmk77WqmIvT.jpg",
        "adult": false,
        "overview": "After a series his books have been flops, Charles Dickens decides to write and self-publish A Christmas Carol.",
        "release_date": "2017-11-22"
      },
      {
        "vote_count": 7,
        "id": 399404,
        "video": false,
        "vote_average": 5,
        "title": "Darkest Hour",
        "popularity": 162.480958,
        "poster_path": "/67fPL6ZaiOeM4hYqpxqV9Py8psJ.jpg",
        "original_language": "en",
        "original_title": "Darkest Hour",
        "genre_ids": [
          18,
          36,
          10752
        ],
        "backdrop_path": "/mBd56RoS8HiiLT1u0ZZAWFWSU3g.jpg",
        "adult": false,
        "overview": "A thrilling and inspiring true story begins on the eve of World War II as, within days of becoming Prime Minister of Great Britain, Winston Churchill must face one of his most turbulent and defining trials: exploring a negotiated peace treaty with Nazi Germany, or standing firm to fight for the ideals, liberty and freedom of a nation. As the unstoppable Nazi forces roll across Western Europe and the threat of invasion is imminent, and with an unprepared public, a skeptical King, and his own party plotting against him, Churchill must withstand his darkest hour, rally a nation, and attempt to change the course of world history.",
        "release_date": "2017-11-22"
      },
      {
        "vote_count": 10,
        "id": 300687,
        "video": false,
        "vote_average": 4.3,
        "title": "Same Kind of Different as Me",
        "popularity": 154.100232,
        "poster_path": "/cCTwHtXBVL96ImKDwm5T8pPNO41.jpg",
        "original_language": "en",
        "original_title": "Same Kind of Different as Me",
        "genre_ids": [
          18
        ],
        "backdrop_path": "/8axMVK30mf5xDOYJBgD0QS08G4N.jpg",
        "adult": false,
        "overview": "International art dealer Ron Hall must befriend a dangerous homeless man in order to save his struggling marriage to his wife, a woman whose dreams will lead all three of them on the journey of their lives.",
        "release_date": "2017-10-20"
      }
    ],
    "page": 1,
    "total_results": 1121,
    "dates": {
      "maximum": "2017-12-01",
      "minimum": "2017-10-14"
    },
    "total_pages": 57
  } 